-------------------------------------------------------------------------------
Test set: com.epam.newsmanagement.dao.hibernate.AuthorDAOTest
-------------------------------------------------------------------------------
Tests run: 5, Failures: 0, Errors: 0, Skipped: 0, Time elapsed: 5.215 sec
