-------------------------------------------------------------------------------
Test set: com.epam.muha.dao.NewsDAOTest
-------------------------------------------------------------------------------
Tests run: 7, Failures: 0, Errors: 0, Skipped: 0, Time elapsed: 0.35 sec
